Division,WeightClassKg,Place,Name,Team,BodyweightKg,Best3SquatKg,Best3BenchKg,Best3DeadliftKg,TotalKg,Equipment,Event,Sex
Boys,59.87,1,Devin Gosai,Keller,58.79,129.27,92.99,147.42,369.68,Single-ply,SBD,M
Boys,67.13,2,Devonte Johnson,Keller Fossil Ridge,60.1,124.74,72.57,136.08,333.39,Single-ply,SBD,M
Boys,67.13,1,Tyler Barnett,Keller Central,64.18,158.76,92.99,151.95,403.7,Single-ply,SBD,M
Boys,67.13,2,Gonzalo Berlingeri,Keller Fossil Ridge,63.37,165.56,90.72,142.88,399.16,Single-ply,SBD,M
Boys,67.13,3,Carlton Vance,Keller Timber Creek,66.5,145.15,81.65,136.08,362.87,Single-ply,SBD,M
Boys,67.13,4,Logan Henry,Keller,64.09,129.27,68.04,151.95,349.27,Single-ply,SBD,M
Boys,74.84,5,Evan White,Keller,67.18,124.74,56.7,140.61,322.05,Single-ply,SBD,M
Boys,74.84,1,Tyler Portwood,Keller,74.84,156.49,97.52,170.1,424.11,Single-ply,SBD,M
Boys,74.84,2,Bryan Seville,Keller Timber Creek,70.49,151.95,97.52,165.56,415.04,Single-ply,SBD,M
Boys,74.84,3,Brandon Staudt,Keller,71.4,149.69,88.45,158.76,396.89,Single-ply,SBD,M
Boys,74.84,4,Jonathan Rojas,Keller Timber Creek,71.53,136.08,72.57,149.69,358.34,Single-ply,SBD,M
Boys,74.84,5,Reed Puckett,Keller Fossil Ridge,71.62,120.2,88.45,136.08,344.73,Single-ply,SBD,M
Boys,74.84,6,Michael Edwards #6,Keller Timber Creek,73.21,120.2,72.57,142.88,335.66,Single-ply,SBD,M
Boys,82.1,1,Matt Gibson #3,Keller Central,77.75,199.58,136.08,201.85,537.51,Single-ply,SBD,M
Boys,82.1,2,Adrian Alcantar,Keller Fossil Ridge,78.29,204.12,117.93,183.7,505.76,Single-ply,SBD,M
Boys,82.1,3,Brandon Pond,Keller,76.97,183.7,99.79,172.37,455.86,Single-ply,SBD,M
Boys,82.1,4,Tyler Park,Keller,79.65,140.61,70.31,151.95,362.87,Single-ply,SBD,M
Boys,82.1,5,Brandon Bailey,Keller Timber Creek,79.33,113.4,65.77,142.88,322.05,Single-ply,SBD,M
Boys,82.1,6,Zach Bock,Keller Timber Creek,75.84,102.06,72.57,122.47,297.1,Single-ply,SBD,M
Boys,89.81,1,James Nwankpah,Keller Central,85.37,179.17,111.13,165.56,455.86,Single-ply,SBD,M
Boys,99.79,1,Trenton Turrentine,Keller Central,92.26,213.19,133.81,215.46,562.45,Single-ply,SBD,M
Boys,99.79,2,Henry Silva,Keller Fossil Ridge,99.79,213.19,131.54,190.51,535.24,Single-ply,SBD,M
Boys,99.79,3,Josh Tucker,Keller,90.76,201.85,115.67,188.24,505.76,Single-ply,SBD,M
Boys,99.79,4,Matt Sandjo,Keller Fossil Ridge,94.62,192.78,113.4,190.51,496.68,Single-ply,SBD,M
Boys,99.79,5,Connor Rehmet,Keller,99.11,174.63,127.01,183.7,485.34,Single-ply,SBD,M
Boys,99.79,6,Travon Provost,Keller Timber Creek,99.7,120.2,88.45,161.03,369.68,Single-ply,SBD,M
Boys,99.79,7,Lucas Herrera,Keller Timber Creek,98.43,124.74,77.11,149.69,351.53,Single-ply,SBD,M
Boys,99.79,DQ,Alfonso Castellanos,Keller Central,98.34,156.49,,,,Single-ply,SBD,M
Boys,109.77,1,Shane Thompson,Keller Fossil Ridge,106.5,167.83,108.86,192.78,469.47,Single-ply,SBD,M
Boys,109.77,2,Mason White,Keller Timber Creek,108.59,149.69,90.72,183.7,424.11,Single-ply,SBD,M
Boys,109.77,3,Cody Curlee,Keller Timber Creek,100.56,129.27,70.31,158.76,358.34,Single-ply,SBD,M
Boys,124.74,1,Shane Luikens,Keller,119.93,208.65,181.44,199.58,589.67,Single-ply,SBD,M
Boys,124.74,2,Cody Cutting,Keller Central,112.9,201.85,129.27,204.12,535.24,Single-ply,SBD,M
Boys,124.74,3,Michael Calender,Keller,120.7,190.51,97.52,204.12,492.15,Single-ply,SBD,M
Boys,124.74+,4,Joe Munifo,Keller,124.78,183.7,111.13,154.22,449.06,Single-ply,SBD,M
Boys,124.74+,1,Mark Killion,Keller Fossil Ridge,136.3,249.48,156.49,204.12,610.08,Single-ply,SBD,M
