﻿BDFPF TEAM BENCH UNEQUIPPED 2012
Team Bench  UNEQUIPPED 2012
                                   82,5 KG Servotte              Geoffroy    M                   Planet Fitness   31   SR   82,2    162,5   171     172,5    -175   107,11
                                   75 KG Sudarminto              Indra       M                   Planet Fitness   21   JR   73,7    130     135     -138            90,95
1                                  110 KG Van Roy                Yannick     M                   Planet Fitness   20   JR   108,2   130     -140    -140            70,04
                                   60 KG Smet                    Indy        M                   Planet Finess    18   T3   58,5    70      80      -89             66,76
                                                                                                                                                                    334,86
                                   75 KG Houbraken               Kim         M                   Gilberts Gym     28   SR   69,8    120     130     -135            91,62
                                   67,5 KG Van Den AbbeleTim                 M                   Gilberts Gym     24   SR   62,8    105     115     -120            89,30
2                                  82,5 KG Peeters               Alan        M                   Gilberts Gym     18   T3   78,8    115     125     132,5           84,79
                                   - 63 KG Wuyts                 Helen       V                   Gilberts Gym     20   JR   59,3    70      75      -77,5           65,16
                                                                                                                                                                    330,87
                                   75 KG Hallewaert              Bart        M                   Isogym           43   M1   73,9    130     135     -137,5          90,76
                                   82,5 KG Soenens               Gillis      M                   Isogym           21   JR   75,1    115     120     122,5           81,32
3                                  125 KG Golsteyn               Bart        M                   Isogym           46   M2   117,2   140     145     150             79,43
                                   56 KG Vermeulen               Sven        M                   Isogym           20   JR   53,8    80      85      -88             77,94
                                                                                                                                                                    329,44
                                   90 KG Vanglabeke              Nick        M                   Fit 4 Fun        29   SR   88,0    130     135     142,5           84,57
                                   67,5 KG Imant                 Maarten     M                   Fit 4 Fun        26   SR   63,9    105     107,5   -110            82,09
4                                  100 KG Verstraeten            Wouter      M                   Fit 4 Fun        35   SR   96,4    145     -150    -150            81,72
                                   75 KG Callemeyn               Johny       M                   Fit 4 fun        58   M4   73,5    105     110     112,5           75,96
                                                                                                                                                                    324,34
                                   100 KG Van Heesvelde Jeroen               M                   House Of Gain    21   JR   98,7    130     140     -145            78,02
                                   100 KG Egide                  Gregoire    M                   House Of Gain    27   SR   95,3    125     135     -137,5          76,53
5                                  82,5 KG Lauveryns             Jarno       M                   House Of Gain    20   JR   75,6    -105    -105    105             69,33
                                   90 KG van Heesvelde           Bart        M                   House Of Gain    19   T3   83,1    100     105     -110            64,70
                                                                                                                                                                    288,59
                                   145 KG Dechamps               Jerome      M                   Castors          24   SR   127,5   140     150     155             80,29
                                   145 KG Dechamps               Sebastien   M                   Castors          18   T3   133,9   130     140     -145            71,44
6                                  67,5 KG Jacmart               Jeremy      M                   Castors          20   JR   61,7    80      85      87,5            69,14
                                   - 80 KG Dechamps              Nadege      V                   Castors          15   T1   76,3    80      85,5    86       86,5   60,58
                                                                                                                                                                    281,45
                                   90 KG Deschamps               Timothy     M     Fit 4 Fun 2                    20   JR   83,6    110     115     122,5           75,18
                                   100 KG Boone                  Chavez      M     Fit 4 Fun 2                    20   JR   98,4    120     130     -137,5          72,55
7                                  82,5 KG De Jode               Michael     M     Fit 4 Fun 2                    20   JR   81,6    105     -110    112,5           70,21
                                   90 KG Wouters                 Sammuel     M     Fit 4 Fun 2                    23   JR   88,7    95      -100    100             59,05
                                                                                                                                                                    276,99
                                   90 KG Verbeke                 Beny        M      Isogym 2                      46   M2   88,5    110     115     -117,5          68,01
8                                  67,5 KG Cuylle                Angelo      M      Isogym 2                      18   T3   66,7    80      85      87,5            64,20
                                   67,5 KG Bruneel               Angelo      M      Isogym 2                      18   T3   63,4    70      75      -80             57,71
                                   90 KG Velghe                  Jonas       M      Isogym 2                      19   T3   89,2    90      -95     -95             52,97
242,88
7 - 4 - 2012 Merksem

BDFPF TEAM BENCH UNEQUIPPED 2012
                                   67,5 KG Eeckhout            Laurens         M    Patton Team   16   T2   67,0    80       85       90              65,76
                                   125 KG Goovaerts            Marc            M    Patton Team   54   M3   113,9   100      107,5    115             61,23
9                                  100 KG Theyssens            Martin          M    Patton Team   72   M7   91,7    95       100      -102,5          57,90
                                   75 KG Van den Bogaer Tony                   M    Patton Team   33   SR   74,1    70       80       -90             53,66
                                                                                                                                                      238,55
                                   110 KG Saltakhanov          Vakhid      M   KBBC               46   M2   101,2   140      160      170             93,72
10                                 90 KG De Cock               Eugene      M   KBBC               49   M2   86,3    95       100      105             63,09
                                   82,5 KG Devos               Kurt        M   KBBC               41   M1   79,4    90       95       -97,5           60,46
                                                                                                                                                      217,27
                                   82,5 KG Roegiers            Jean-Paul       M    Jackys Gym    67   M6   81,4    102,5    105      107,5    -108   67,20
11                                 90 KG Devaere               Achiel          M    Jackys Gym    64   M5   89,1    107,5    110      -112,5          64,78
                                                                                                                                                      131,98
12                                 75 KG Tirth                 Ram         M   Dynamic Gym        39   SR   73,8    135      140      -145            94,22
13                                 75 KG De Vissher            Geovanni    M   Power Lebbeke      18   T3   69,4    -120     125      130             92,08
14                                 + 90 KG Claes               Claudia     V   Planet Fitness 2   45   M2   92,7    70       75,5     77,5            48,20
15                                 110 KG Peeters              Geeraard    M   Patton Team 2      25   SR   101,1   -102,5   -102,5   -102,5          0,00
7 - 4 - 2012 Merksem
