Name,Age,Division,Equipment,Sex,BodyweightKg,WeightClassKg,Squat1Kg,Squat2Kg,Squat3Kg,Best3SquatKg,Bench1Kg,Bench2Kg,Bench3Kg,Best3BenchKg,Deadlift1Kg,Deadlift2Kg,Deadlift3Kg,Best3DeadliftKg,TotalKg,Event,Place,BirthDate
Maura Shuttleworth,40,FO-AD,Multi-ply,F,51.8,52,120,132.5,140,140,100,107.5,-112.5,107.5,120,130,-137.5,130,377.5,SBD,1,
Kristin Vaziri,31,FO-AD,Multi-ply,F,64.46,67.5,-190,-205,-215,,-100,,,,-137.5,,,,,SBD,DQ,
Ann Lenz,37,FO-AD,Multi-ply,F,74.75,75,155,-165,-165,155,92.5,102.5,-107.5,102.5,125,137.5,145,145,402.5,SBD,1,
JJ Thomas,35,MO-AD,Multi-ply,M,89.45,90,-340,-350,350,350,-235,-235,-235,,-292.5,,,,,SBD,DQ,
Eddie Lone Eagle,,MO-AD,Multi-ply,M,87.72,90,-345,-345,-365,,-165,,,,-265,,,,,SBD,DQ,
Joe Grosz,,MO-AD,Multi-ply,M,109.5,110,330,-352.5,-352.5,330,242.5,-260,-260,242.5,282.5,-305,-305,282.5,855,SBD,1,
Kyle Duchsherer,34,MO-AD,Multi-ply,M,122.2,125,-307.5,307.5,-340,307.5,212.5,-230,230,230,230,257.5,280,280,817.5,SBD,1,
Samantha Firman,41,FM1R-AD,Wraps,F,64.32,67.5,85,92.5,102.5,102.5,57.5,60,65,65,105,112.5,-130,112.5,280,SBD,1,
Deanna Mancera,42,FM1R-AD,Wraps,F,65.77,67.5,95,105,-115,105,52.5,57.5,-62.5,57.5,102.5,117.5,-122.5,117.5,280,SBD,2,
Tina Jones,56,FM4R-AD,Wraps,F,103.37,90+,70,82.5,95,95,55,-75,-75,55,80,90,102.5,102.5,252.5,SBD,1,
Nicki Crapotta,29,FOR-AD,Wraps,F,59.96,60,120,-137.5,-137.5,120,72.5,77.5,82.5,82.5,162.5,-177.5,177.5,177.5,380,SBD,1,
Michelle Keaulana,37,FOR-AD,Wraps,F,67.18,67.5,170,187.5,-192.5,187.5,80,-90,-90,80,155,167.5,-172.5,167.5,435,SBD,1,
Jenna Sheriff,31,FOR-AD,Wraps,F,62.1,67.5,107.5,115,-125,115,52.5,-57.5,-57.5,52.5,110,115,120,120,287.5,SBD,4,
Emily Barnes,28,FOR-AD,Wraps,F,62.78,67.5,75,82.5,92.5,92.5,50,-60,62.5,62.5,120,147.5,150,150,305,SBD,2,
Lynn Stoltz,24,FOR-AD,Wraps,F,66.59,67.5,97.5,-105,105,105,47.5,52.5,,52.5,142.5,-150,,142.5,300,SBD,3,
Kathy Johnson,27,FOR-AD,Wraps,F,73.48,75,112.5,127.5,140,140,85,92.5,97.5,97.5,145,165,-177.5,165,402.5,SBD,1,
Kayla Heal,25,FOR-AD,Wraps,F,80.38,82.5,175,185,195,195,85,90,-95,90,175,182.5,190,190,475,SBD,1,
Melissa Thompson,36,FOR-AD,Wraps,F,75.34,82.5,102.5,107.5,-110,107.5,60,65,-67.5,65,122.5,130,-137.5,130,302.5,SBD,3,
Darlene Delk,38,FOR-AD,Wraps,F,79.65,82.5,110,-115,115,115,57.5,62.5,-65,62.5,137.5,-142.5,-142.5,137.5,315,SBD,2,
Alyssa Way,24,FOR-AD,Wraps,F,86.36,90,155,170,-182.5,170,75,80,-85,80,165,-185,-185,165,415,SBD,1,
Chrysta Bruns,14,FT1R-AD,Wraps,F,63,67.5,47.5,60,67.5,67.5,25,-30,,25,35,,,35,127.5,SBD,1,
Dylan Hellie,20,MJR-AD,Wraps,M,95.71,100,80,90,105,105,120,130,-132.5,130,75,80,82.5,82.5,317.5,SBD,1,
Val Huerta,42,MM1R-AD,Wraps,M,96.71,100,262.5,280,,280,127.5,,,127.5,-275,,,,,SBD,DQ,
Jerry Adkins,41,MM1R-AD,Wraps,M,113.85,125,187.5,207.5,215,215,110,117.5,-125,117.5,182.5,202.5,215,215,547.5,SBD,1,
Jay Potter,,MOR-AD,Wraps,M,74.93,75,150,165,170,170,102.5,110,-112.5,110,167.5,175,-182.5,175,455,SBD,1,
Dallas Stoltz,23,MOR-AD,Wraps,M,81.19,82.5,200,-210,-210,200,125,130,-135,130,232.5,250,-260,250,580,SBD,1,
Tim Hoffman,33,MOR-AD,Wraps,M,108.41,110,262.5,280,-285,280,185,-195,195,195,290,-300,-300,290,765,SBD,2,
Andrew Burnell,27,MOR-AD,Wraps,M,110,110,290,-310,310,310,227.5,-235,-235,227.5,320,342.5,,342.5,880,SBD,1,
Dominic Busacca,24,MOR-AD,Wraps,M,113.85,125,192.5,202.5,210,210,132.5,142.5,-145,142.5,205,217.5,227.5,227.5,580,SBD,3,
Nate Wittenburg,38,MOR-AD,Wraps,M,123.56,125,-287.5,-287.5,287.5,287.5,175,182.5,-187.5,182.5,-277.5,277.5,,277.5,747.5,SBD,2,
Nate McLaughlin,24,MOR-AD,Wraps,M,123.38,125,335,-355,-355,335,187.5,-192.5,192.5,192.5,277.5,290,-297.5,290,817.5,SBD,1,
Behzad Bakhshandeh,25,MOR-AD,Wraps,M,211.56,140+,185,205,227.5,227.5,120,-137.5,-137.5,120,170,192.5,210,210,557.5,SBD,2,
Doug Staley,,MOR-AD,Wraps,M,167.83,140+,325,-347.5,-365,325,170,185,-190,185,280,297.5,-320,297.5,807.5,SBD,1,
Patrick Umphrey,,MSR-AD,Wraps,M,81.47,82.5,190,200,207.5,207.5,120,-127.5,127.5,127.5,190,200,-207.5,200,535,SBD,1,
Matt Meek,36,MSR-AD,Wraps,M,97.07,100,240,255,-262.5,255,125,135,-142.5,135,240,255,265,265,655,SBD,1,
Andy Kainz,36,MSR-AD,Wraps,M,122.56,125,-135,135,-140,135,-75,75,80,80,-165,165,175,175,390,SBD,2,
Sonny Bruns,37,MSR-AD,Wraps,M,124.47,125,182.5,202.5,-220,202.5,125,-140,140,140,192.5,212.5,-230,212.5,555,SBD,1,
Jack Cartwright,15,MT1R-AD,Wraps,M,74.21,75,-150,150,167.5,167.5,110,120,-122.5,120,152.5,170,187.5,187.5,475,SBD,1,
Bradyn Barclay,14,MT1R-AD,Wraps,M,72.67,75,127.5,-145,145,145,70,77.5,-90,77.5,132.5,155,165,165,387.5,SBD,2,
Trevor Mensen,16,MT2R-AD,Wraps,M,109.95,110,112.5,130,-142.5,130,90,100,110,110,145,162.5,-177.5,162.5,402.5,SBD,1,
Pat Crawford,,MO,Multi-ply,M,108.59,110,-300,-305,-305,,-212.5,,,,-287.5,,,,,SBD,DQ,
Bill Carlough,,MM4,Multi-ply,M,88,90,302.5,327.5,-345,327.5,125,192.5,-205,192.5,210,-227.5,-227.5,210,730,SBD,1,
Vinny Milles,,MO,Multi-ply,M,86.18,90,250,-280,-280,250,227.5,-247.5,-247.5,227.5,220,-242.5,-242.5,220,697.5,SBD,1,
Ron Huebner,,MO,Multi-ply,M,89.54,90,115,,,115,-205,-205,205,205,235,245,-260,245,565,SBD,2,
Blake Summers,35,MO,Multi-ply,M,96.07,100,-340,352.5,-365,352.5,215,227.5,-240,227.5,-265,265,302.5,302.5,882.5,SBD,2,
James Burdette,,MO,Multi-ply,M,99.88,100,410,-455,-455,410,320,-365,-365,320,260,272.5,-287.5,272.5,1002.5,SBD,1,
Matt Graber,,MO,Multi-ply,M,91.53,100,250,272.5,295,295,142.5,150,-160,150,205,227.5,-237.5,227.5,672.5,SBD,4,
Matt Ladewski,,MO,Multi-ply,M,99.88,100,227.5,252.5,272.5,272.5,145,-272.5,-272.5,145,327.5,-350,-365,327.5,745,SBD,3,
Cody Campbell,34,MO,Multi-ply,M,107.41,110,290,305,-322.5,305,165,-182.5,182.5,182.5,230,260,272.5,272.5,760,SBD,1,
John Lenz,,MO,Multi-ply,M,116.94,125,-352.5,-352.5,-365,,-255,,,,-220,,,,,SBD,DQ,
Zach Brown #1,,MO,Multi-ply,M,116.57,125,245,257.5,272.5,272.5,197.5,207.5,-220,207.5,245,257.5,265,265,745,SBD,1,
Dustin Minks,,MO,Multi-ply,M,122.56,125,227.5,-242.5,-242.5,227.5,230,-240,-240,230,170,172.5,,172.5,630,SBD,2,
Jeff Brown,,MO,Multi-ply,M,124.38,125,185,,,185,125,132.5,,132.5,-185,,,,,SBD,DQ,
Cory Scutter,,MO,Multi-ply,M,137.62,140,307.5,320,-332.5,320,262.5,272.5,287.5,287.5,252.5,-272.5,272.5,272.5,880,SBD,2,
Scott Cartwright,,MO,Multi-ply,M,126.73,140,275,320,-365,320,227.5,-250,-250,227.5,290,320,330,330,877.5,SBD,3,
Kevin Frey,,MO,Multi-ply,M,133.17,140,375,420,-432.5,420,-282.5,-295,-295,,-272.5,,,,,SBD,DQ,
Marshall Johnson,,MO,Multi-ply,M,134.08,140,342.5,365,387.5,387.5,227.5,242.5,250,250,332.5,-355,,332.5,970,SBD,1,
Jayson McNett,,MO,Multi-ply,M,152.41,140+,400,-427.5,-455,400,192.5,200,-205,200,285,290,295,295,895,SBD,2,
Jeff Frank,,MO,Multi-ply,M,181.44,140+,495,532.5,552.5,552.5,345,367.5,-377.5,367.5,317.5,-337.5,337.5,337.5,1257.5,SBD,1,
Nick Tsourounis,,MS,Multi-ply,M,108.23,110,365,395,410,410,275,287.5,-300,287.5,280,302.5,-317.5,302.5,1000,SBD,1,1980-09-20
Jacey Tomhuve,,FJR,Wraps,F,81.92,82.5,110,117.5,-122.5,117.5,62.5,-80,-80,62.5,162.5,175,-182.5,175,355,SBD,1,
Belinda Clary,41,FM1R,Wraps,F,66.09,67.5,130,-142.5,-142.5,130,72.5,-82.5,-82.5,72.5,-137.5,137.5,155,155,357.5,SBD,1,
Michelle Fahrendorf,45,FM2R,Wraps,F,99.88,90+,-80,82.5,87.5,87.5,52.5,55,60,60,102.5,115,122.5,122.5,270,SBD,1,
Becky Wilson,44,FM1R,Wraps,F,122.06,90+,75,82.5,90,90,-47.5,-47.5,47.5,47.5,90,97.5,105,105,242.5,SBD,2,
Jocelyn Dagustino,28,FOR,Wraps,F,49.8,52,62.5,70,77.5,77.5,35,-40,42.5,42.5,72.5,80,92.5,92.5,212.5,SBD,1,
Stephanie Bomstad,32,FOR,Wraps,F,54.88,56,95,110,-117.5,110,50,62.5,72.5,72.5,95,107.5,117.5,117.5,300,SBD,1,
Missy Frankl,37,FOR,Wraps,F,59.96,60,77.5,92.5,-107.5,92.5,35,47.5,-55,47.5,87.5,95,-107.5,95,235,SBD,1,
Jessica Ball,35,FOR,Wraps,F,70.44,75,82.5,97.5,112.5,112.5,42.5,52.5,57.5,57.5,107.5,122.5,137.5,137.5,307.5,SBD,2,
Samantha Scott,,FOR,Wraps,F,74.89,75,165,185,195,195,77.5,87.5,92.5,92.5,167.5,185,-195,185,472.5,SBD,1,
Melissa Brown,43,FOR,Wraps,F,80.56,82.5,122.5,135,142.5,142.5,65,70,72.5,72.5,145,160,165,165,380,SBD,2,
Elizabeth Hughes #2,29,FOR,Wraps,F,76.97,82.5,172.5,177.5,-185,177.5,102.5,-107.5,107.5,107.5,152.5,170,175,175,460,SBD,1,
Sarah Fox,32,FOR,Wraps,F,81.06,82.5,82.5,-87.5,92.5,92.5,40,45,-55,45,100,115,120,120,257.5,SBD,3,
Samantha DiBois,,FOR,Wraps,F,163.61,90+,260,287.5,300,300,155,167.5,177.5,177.5,210,230,-242.5,230,707.5,SBD,1,
Shawnna Smith,38,FSR,Wraps,F,75.39,82.5,92.5,-97.5,97.5,97.5,-57.5,57.5,60,60,102.5,105,107.5,107.5,265,SBD,1,
Kenna Compton,,FT3R,Wraps,F,97.25,90+,90,102.5,-110,102.5,45,52.5,-60,52.5,115,127.5,-137.5,127.5,282.5,SBD,1,
Josh Cinnamo,,MOR,Wraps,M,90.72,100,215,230,242.5,242.5,105,125,-147.5,125,195,210,220,220,587.5,SBD,G,
Nomg Terry,47,MM2R,Wraps,M,76.57,82.5,70,75,77.5,77.5,70,80,-82.5,80,105,115,122.5,122.5,280,SBD,1,
Mike Reilly,50,MM3R,Wraps,M,108.14,110,212.5,245,-250,245,192.5,195,-197.5,195,195,222.5,227.5,227.5,667.5,SBD,1,
Michael Risher,40,MM1R,Wraps,M,114.76,125,255,265,-272.5,265,-142.5,147.5,-152.5,147.5,255,-262.5,,255,667.5,SBD,1,
Aaron Chapman,42,MM1R,Wraps,M,146.78,140+,225,240,252.5,252.5,152.5,165,175,175,257.5,275,-282.5,275,702.5,SBD,1,
Wade Johnson,,MM3R,Wraps,M,162.48,140+,227.5,250,-272.5,250,167.5,175,-185,175,227.5,250,-272.5,250,675,SBD,2,
Vince Botempo,,MM1R,Wraps,M,176.27,140+,227.5,237.5,245,245,175,190,195,195,215,220,-222.5,220,660,SBD,3,
Andy Wagoner,32,MOR,Wraps,M,89.9,90,165,-167.5,167.5,167.5,-120,-120,-120,,-175,,,,,SBD,DQ,
Daniel McCaughey,31,MOR,Wraps,M,88.63,90,155,165,-180,165,110,122.5,125,125,195,207.5,220,220,510,SBD,2,
Nicholas Albrecht,31,MOR,Wraps,M,89.36,90,182.5,-205,-205,182.5,-150,150,-162.5,150,227.5,242.5,252.5,252.5,585,SBD,1,
Jake Hartman,28,MOR,Raw,M,89.9,90,260,275,287.5,287.5,182.5,192.5,200,200,300,317.5,-330,317.5,805,SBD,1,
Matt Mitchell #1,,MOR,Wraps,M,108.41,110,-387.5,387.5,-400,387.5,215,227.5,-235,227.5,-287.5,-287.5,287.5,287.5,902.5,SBD,1,
Sturgis Steele,33,MOR,Wraps,M,118.57,125,205,-220,-220,205,110,-130,-130,110,100,160,-197.5,160,475,SBD,3,
Shaun Kopplin,,MOR,Wraps,M,119.48,125,300,-325,-325,300,182.5,190,-192.5,190,267.5,285,295,295,785,SBD,2,
David Braaten,,MOR,Wraps,M,123.56,125,345,375,-390,375,190,200,-205,200,292.5,305,-320,305,880,SBD,1,
Jon Jurish,30,MOR,Wraps,M,134.44,140,250,-272.5,272.5,272.5,185,202.5,215,215,250,272.5,297.5,297.5,785,SBD,1,
Matt Fredericks,39,MOR,Wraps,M,140.16,140+,222.5,245,262.5,262.5,167.5,-175,-175,167.5,220,232.5,-237.5,232.5,662.5,SBD,1,
Justin Sager,,MOR,Wraps,M,152.86,140+,227.5,-272.5,295,295,-162.5,-162.5,-162.5,,-275,,,,,SBD,DQ,
Daniel Hentges,39,MSR,Wraps,M,86.91,90,152.5,170,182.5,182.5,120,130,-137.5,130,200,215,227.5,227.5,540,SBD,1,
Brad Snyder,35,MSR,Wraps,M,93.17,100,200,212.5,-217.5,212.5,122.5,135,-137.5,135,215,-232.5,-232.5,215,562.5,SBD,1,
Josh Smith #10,36,MSR,Wraps,M,103.6,110,-227.5,227.5,235,235,170,175,-182.5,175,240,250,257.5,257.5,667.5,SBD,1,
Cameron Waldrep,,MT3R,Wraps,M,85.46,90,180,192.5,-202.5,192.5,122.5,-130,-130,122.5,182.5,187.5,-192.5,187.5,502.5,SBD,1,
Pete Knudson,42,MM1-AD,Multi-ply,M,124.19,125,,,,,125,137.5,-150,137.5,205,227.5,,227.5,365,BD,1,
TJ Thomas,,MO-AD,Multi-ply,M,109.77,110,,,,,127.5,-137.5,-137.5,127.5,172.5,185,200,200,327.5,BD,1,
Jacquie Geppert,39,FSR-AD,Raw,F,73.89,75,,,,,-72.5,72.5,80,80,132.5,142.5,152.5,152.5,232.5,BD,1,
Josh Stimpy Smith,32,MO,Multi-ply,M,67.31,67.5,,,,,142.5,-150,150,150,132.5,142.5,157.5,157.5,307.5,BD,1,
Tom Waldrep,52,MO,Multi-ply,M,99.79,100,,,,,-345,-345,-345,,-227.5,,,,,BD,DQ,
Frankie Poupolo,34,MO,Multi-ply,M,129.91,140,,,,,-287.5,287.5,,287.5,-317.5,317.5,-337.5,317.5,605,BD,1,
Paige Prazak,9,FOR,Raw,F,36.29,44,,,,,22.5,25,-27.5,25,57.5,62.5,67.5,67.5,92.5,BD,G,
Deanne Gibson,55,FM4R,Raw,F,73.3,75,,,,,42.5,50,-52.5,50,75,90,100,100,150,BD,1,
Heather Albrecht,42,FOR,Raw,F,59.83,60,,,,,42.5,50,57.5,57.5,77.5,95,100,100,157.5,BD,1,
Sherine Dacarma,36,FOR,Raw,F,88.09,90,,,,,57.5,62.5,-67.5,62.5,100,110,120,120,182.5,BD,1,
Preston Prazak,11,MOR,Raw,M,36.29,52,,,,,30,35,37.5,37.5,-82.5,,,,,BD,DQ,
Hunter Luyando,11,MOR,Raw,M,59.33,60,,,,,27.5,-35,35,35,100,107.5,110,110,145,BD,G,
Alan Gibson,58,MM4R,Raw,M,94.71,100,,,,,110,117.5,-130,117.5,152.5,182.5,-192.5,182.5,300,BD,1,
Kevin Ball,39,MOR,Raw,M,94.8,100,,,,,160,182.5,,182.5,227.5,250,272.5,272.5,455,BD,2,
Brett Rutherford,28,MOR,Raw,M,99.79,100,,,,,157.5,-167.5,-167.5,157.5,227.5,-250,-260,227.5,385,BD,3,
Omar Avilia,30,MOR,Raw,M,99.79,100,,,,,160,175,-182.5,175,285,-307.5,-307.5,285,460,BD,1,
Howard Penrose,49,MM2-AD,Multi-ply,M,149.78,140+,,,,,190,197.5,205,205,,,,,205,B,1,
Brad Slining,42,MM1-AD,Multi-ply,M,147.42,140+,,,,,-290,-320,-330,,,,,,,B,DQ,
Eric Stone #1,33,MO-AD,Multi-ply,M,74.84,75,,,,,170,190,-195,190,,,,,190,B,1,
Matt Bertrang,39,MS-AD,Multi-ply,M,185.25,140+,,,,,-287.5,287.5,-305,287.5,,,,,287.5,B,1,
Stephanie Merfeld,45,FM2R-AD,Raw,F,88.95,90,,,,,60,65,70,70,,,,,70,B,1,
Mark Hauschildt,35,MOR-AD,Raw,M,119.29,125,,,,,227.5,235,240,240,,,,,240,B,1,
Dave Murphy #1,61,MM5,Multi-ply,M,111.67,125,,,,,120,245,,245,,,,,245,B,1,
Roger Ryan,60,MM5,Multi-ply,M,142.61,140+,,,,,-320,320,-330,320,,,,,320,B,1,
Jimmy Brooks,39,MO,Multi-ply,M,113.76,125,,,,,272.5,-282.5,-282.5,272.5,,,,,272.5,B,1,
Rob Luyando,45,MO,Multi-ply,M,137.44,140,,,,,-400,,,,,,,,,B,DQ,
Matt Houser,32,MO,Multi-ply,M,137.17,140,,,,,402.5,415,-432.5,415,,,,,415,B,1,
Colleen Fitzpatrick,44,FM1R,Raw,F,142.07,90+,,,,,115,125,132.5,132.5,,,,,132.5,B,1,
Liz Parkerson,28,FOR,Raw,F,58.06,60,,,,,57.5,62.5,67.5,67.5,,,,,67.5,B,1,
JuJu Yang,33,FOR,Raw,F,81.33,82.5,,,,,-77.5,-77.5,-77.5,,,,,,,B,DQ,
John Berding,50,MM3R,Raw,M,97.79,100,,,,,155,-162.5,-162.5,155,,,,,155,B,1,
Andy Gjerstad,35,MOR,Raw,M,97.89,100,,,,,182.5,192.5,-197.5,192.5,,,,,192.5,B,1,
Jake Prazak,39,MOR,Raw,M,108.05,110,,,,,210,220,-227.5,220,,,,,220,B,1,
Brian Scott,34,MOR,Raw,M,106.32,110,,,,,185,200,207.5,207.5,,,,,207.5,B,2,
Jerry Prazak,37,MOR,Raw,M,120.38,125,,,,,172.5,-182.5,-182.5,172.5,,,,,172.5,B,2,
Rob Powers,39,MOR,Raw,M,124.74,125,,,,,-190,207.5,-217.5,207.5,,,,,207.5,B,1,
Collin Sheriff,33,MOR,Raw,M,129.36,140,,,,,165,177.5,182.5,182.5,,,,,182.5,B,1,
Joey Kouba,30,MOR,Raw,M,174.18,140+,,,,,125,142.5,165,165,,,,,165,B,1,
Nicole Casey,40,FM1R-AD,Raw,F,50.98,52,,,,,,,,,60,72.5,82.5,82.5,82.5,D,1,
Anna DuCharme,25,FOR-AD,Raw,F,62.37,67.5,,,,,,,,,137.5,-142.5,142.5,142.5,142.5,D,1,
Jessica Fick,28,FOR-AD,Raw,F,73.98,75,,,,,,,,,112.5,122.5,132.5,132.5,132.5,D,1,
Karley Cartwright,13,FT1R-AD,Raw,F,49.44,52,,,,,,,,,67.5,-72.5,80,80,80,D,1,
Jacob Oltmans,16,MT2R-AD,Raw,M,113.13,125,,,,,,,,,132.5,147.5,155,155,155,D,1,
Ambre Tarpley,35,FO,Multi-ply,F,117.93,90+,,,,,,,,,85,95,-102.5,95,95,D,1,
Barzeen Vaziri,31,MO,Multi-ply,M,154.77,140+,,,,,,,,,280,305,325,325,325,D,1,
Laila Thomas,6,FYR,Raw,F,36.29,44,,,,,,,,,27.5,32.5,37.5,37.5,37.5,D,5,
Hayden Meek,6,MYR,Raw,M,36.29,52,,,,,,,,,37.5,45,50,50,50,D,4,
Grace Hamilton,11,FYR,Raw,F,36.29,44,,,,,,,,,45,55,60,60,60,D,3,
Gabby Teegarden,12,FYR,Raw,F,36.29,44,,,,,,,,,57.5,67.5,80,80,80,D,2,
Emma Salazar,11,FYR,Raw,F,36.29,44,,,,,,,,,70,82.5,92.5,92.5,92.5,D,1,
Madden Meek,5,MYR,Raw,M,36.29,52,,,,,,,,,27.5,32.5,40,40,40,D,5,
Dax Frey,8,MYR,Raw,M,25.5,52,,,,,,,,,35,40,45,45,45,D,4,
Zachary Jaakkola,9,MYR,Raw,M,36.29,52,,,,,,,,,45,55,60,60,60,D,2,
Blaise Kaiser,10,MYR,Raw,M,36.29,52,,,,,,,,,47.5,57.5,-65,57.5,57.5,D,3,
Zac Salazar,10,MYR,Raw,M,36.29,52,,,,,,,,,72.5,85,95,95,95,D,1,
Michael Bushur,29,MOR,Raw,M,132.09,140,,,,,,,,,267.5,280,-305,280,280,D,1,
